{
  "name": "deploy",
  "do": "<ul><li>For deploying code/software to a server, container, etc.</li>></ul>",
  "dont": "<ul><li>For uploading.</li></ul>",
  "tags": [
    "deploying",
    "release",
    "distribute"
  ],
  "category": "development",
  "type": "static"
}
