{
  "name": "installing",
  "do": "<ul><li>The user is waiting for an installation process to finalize.</li></ul>",
  "dont": "<ul><li>As feedback for refreshing, reloading or syncing data.</li></ul>",
  "tags": [
    "installing"
  ],
  "category": "virtualization",
  "type": "animated"
}
